<?xml version="1.0" encoding="UTF-8" ?>
<!DOCTYPE svg PUBLIC "-//W3C//DTD SVG 1.1//EN" "http://www.w3.org/Graphics/SVG/1.1/DTD/svg11.dtd">
<svg width="48pt" height="48pt" viewBox="0 0 48 48" version="1.1" xmlns="http://www.w3.org/2000/svg">
<g id="#707070ff">
<path fill="#707070" opacity="1.00" d=" M 14.03 9.92 C 13.87 4.67 19.76 0.48 24.63 2.50 C 28.18 3.56 30.22 7.31 30.01 10.88 C 29.97 17.57 30.07 24.26 29.97 30.95 C 30.12 34.54 25.70 37.43 22.60 35.34 C 20.57 34.44 19.87 32.10 19.99 30.04 C 19.98 24.03 20.02 18.01 20.00 12.00 C 20.75 12.00 22.25 12.00 23.00 12.00 C 23.06 18.34 22.89 24.68 23.05 31.02 C 22.81 33.50 27.13 33.59 26.91 31.06 C 27.11 24.03 27.00 16.98 26.97 9.95 C 27.07 6.36 22.63 3.63 19.55 5.64 C 17.16 6.72 16.87 9.65 16.97 11.95 C 17.11 19.94 16.82 27.95 17.11 35.94 C 17.46 40.82 23.05 44.35 27.60 42.52 C 30.79 41.55 32.94 38.35 32.97 35.07 C 33.07 27.38 32.96 19.69 33.00 12.00 C 33.75 12.00 35.25 12.00 36.00 12.00 C 35.90 20.09 36.20 28.19 35.87 36.27 C 35.41 42.38 29.00 47.09 23.03 45.79 C 18.05 45.00 14.08 40.37 14.05 35.32 C 13.95 26.86 13.98 18.39 14.03 9.92 Z" />
</g>
</svg>
